<?xml version="1.0" encoding="UTF-8" standalone="no"?><svg xmlns="http://www.w3.org/2000/svg" xmlns:xlink="http://www.w3.org/1999/xlink" contentScriptType="application/ecmascript" contentStyleType="text/css" height="183px" preserveAspectRatio="none" style="width:646px;height:183px;" version="1.1" viewBox="0 0 646 183" width="646px" zoomAndPan="magnify"><defs><filter height="300%" id="f3b5zswx9m691" width="300%" x="-1" y="-1"><feGaussianBlur result="blurOut" stdDeviation="2.0"/><feColorMatrix in="blurOut" result="blurOut2" type="matrix" values="0 0 0 0 0 0 0 0 0 0 0 0 0 0 0 0 0 0 .4 0"/><feOffset dx="4.0" dy="4.0" in="blurOut2" result="blurOut3"/><feBlend in="SourceGraphic" in2="blurOut3" mode="normal"/></filter></defs><g><!--MD5=[931c2459a5b1ef2b405e84c8dc93c38e]
class Rental--><rect fill="#FEFECE" filter="url(#f3b5zswx9m691)" height="125.7305" id="Rental" style="stroke: #A80036; stroke-width: 1.5;" width="186" x="199" y="27.5"/><ellipse cx="269.75" cy="43.5" fill="#ADD1B2" rx="11" ry="11" style="stroke: #A80036; stroke-width: 1.0;"/><path d="M272.2231,49.6431 Q271.6421,49.9419 271.0029,50.0913 Q270.3638,50.2407 269.6582,50.2407 Q267.1514,50.2407 265.8315,48.5889 Q264.5117,46.937 264.5117,43.8159 Q264.5117,40.6865 265.8315,39.0347 Q267.1514,37.3828 269.6582,37.3828 Q270.3638,37.3828 271.0112,37.5322 Q271.6587,37.6816 272.2231,37.9805 L272.2231,40.7031 Q271.5923,40.1221 270.9988,39.8523 Q270.4053,39.5825 269.7744,39.5825 Q268.4297,39.5825 267.7449,40.6492 Q267.0601,41.7158 267.0601,43.8159 Q267.0601,45.9077 267.7449,46.9744 Q268.4297,48.041 269.7744,48.041 Q270.4053,48.041 270.9988,47.7712 Q271.5923,47.5015 272.2231,46.9204 Z "/><text fill="#000000" font-family="sans-serif" font-size="12" lengthAdjust="spacingAndGlyphs" textLength="36" x="290.25" y="48.0352">Rental</text><line style="stroke: #A80036; stroke-width: 1.5;" x1="200" x2="384" y1="59.5" y2="59.5"/><rect fill="none" height="6" style="stroke: #C82930; stroke-width: 1.0;" width="6" x="207" y="67.5"/><text fill="#000000" font-family="sans-serif" font-size="11" lengthAdjust="spacingAndGlyphs" textLength="72" x="219" y="74.1348">Movie _movie</text><rect fill="none" height="6" style="stroke: #C82930; stroke-width: 1.0;" width="6" x="207" y="80.4551"/><text fill="#000000" font-family="sans-serif" font-size="11" lengthAdjust="spacingAndGlyphs" textLength="85" x="219" y="87.0898">int _daysRented</text><line style="stroke: #A80036; stroke-width: 1.5;" x1="200" x2="384" y1="93.4102" y2="93.4102"/><ellipse cx="210" cy="104.4102" fill="#84BE84" rx="3" ry="3" style="stroke: #038048; stroke-width: 1.0;"/><text fill="#000000" font-family="sans-serif" font-size="11" lengthAdjust="spacingAndGlyphs" textLength="160" x="219" y="108.0449">Rental (Movie, int daysRented)</text><ellipse cx="210" cy="117.3652" fill="#84BE84" rx="3" ry="3" style="stroke: #038048; stroke-width: 1.0;"/><text fill="#000000" font-family="sans-serif" font-size="11" lengthAdjust="spacingAndGlyphs" textLength="92" x="219" y="121">double amount ()</text><ellipse cx="210" cy="130.3203" fill="#84BE84" rx="3" ry="3" style="stroke: #038048; stroke-width: 1.0;"/><text fill="#000000" font-family="sans-serif" font-size="11" lengthAdjust="spacingAndGlyphs" textLength="62" x="219" y="133.9551">int points ()</text><ellipse cx="210" cy="143.2754" fill="#84BE84" rx="3" ry="3" style="stroke: #038048; stroke-width: 1.0;"/><text fill="#000000" font-family="sans-serif" font-size="11" lengthAdjust="spacingAndGlyphs" textLength="99" x="219" y="146.9102">String statement ()</text><!--MD5=[e69084ab16b022bdbef99762ea85e9d6]
class Movie--><rect fill="#FEFECE" filter="url(#f3b5zswx9m691)" height="164.5957" id="Movie" style="stroke: #A80036; stroke-width: 1.5;" width="215" x="420.5" y="8"/><ellipse cx="507.25" cy="24" fill="#ADD1B2" rx="11" ry="11" style="stroke: #A80036; stroke-width: 1.0;"/><path d="M509.7231,30.1431 Q509.1421,30.4419 508.5029,30.5913 Q507.8638,30.7407 507.1582,30.7407 Q504.6514,30.7407 503.3315,29.0889 Q502.0117,27.437 502.0117,24.3159 Q502.0117,21.1865 503.3315,19.5347 Q504.6514,17.8828 507.1582,17.8828 Q507.8638,17.8828 508.5112,18.0322 Q509.1587,18.1816 509.7231,18.4805 L509.7231,21.2031 Q509.0923,20.6221 508.4988,20.3523 Q507.9053,20.0825 507.2744,20.0825 Q505.9297,20.0825 505.2449,21.1492 Q504.5601,22.2158 504.5601,24.3159 Q504.5601,26.4077 505.2449,27.4744 Q505.9297,28.541 507.2744,28.541 Q507.9053,28.541 508.4988,28.2712 Q509.0923,28.0015 509.7231,27.4204 Z "/><text fill="#000000" font-family="sans-serif" font-size="12" lengthAdjust="spacingAndGlyphs" textLength="33" x="527.75" y="28.5352">Movie</text><line style="stroke: #A80036; stroke-width: 1.5;" x1="421.5" x2="634.5" y1="40" y2="40"/><rect fill="none" height="6" style="stroke: #C82930; stroke-width: 1.0;" width="6" x="428.5" y="48"/><text fill="#000000" font-family="sans-serif" font-size="11" lengthAdjust="spacingAndGlyphs" textLength="61" x="440.5" y="54.6348">String _title</text><rect fill="none" height="6" style="stroke: #C82930; stroke-width: 1.0;" width="6" x="428.5" y="60.9551"/><text fill="#000000" font-family="sans-serif" font-size="11" lengthAdjust="spacingAndGlyphs" textLength="78" x="440.5" y="67.5898">int _priceCode</text><line style="stroke: #A80036; stroke-width: 1.5;" x1="421.5" x2="634.5" y1="73.9102" y2="73.9102"/><ellipse cx="431.5" cy="84.9102" fill="#84BE84" rx="3" ry="3" style="stroke: #038048; stroke-width: 1.0;"/><text fill="#000000" font-family="sans-serif" font-size="11" lengthAdjust="spacingAndGlyphs" textLength="175" x="440.5" y="88.5449">Movie (String title, int priceCode)</text><ellipse cx="431.5" cy="97.8652" fill="#84BE84" rx="3" ry="3" style="stroke: #038048; stroke-width: 1.0;"/><text fill="#000000" font-family="sans-serif" font-size="11" lengthAdjust="spacingAndGlyphs" textLength="99" x="440.5" y="101.5">int getPriceCode ()</text><ellipse cx="431.5" cy="110.8203" fill="#84BE84" rx="3" ry="3" style="stroke: #038048; stroke-width: 1.0;"/><text fill="#000000" font-family="sans-serif" font-size="11" lengthAdjust="spacingAndGlyphs" textLength="86" x="440.5" y="114.4551">String getTitle ()</text><ellipse cx="431.5" cy="123.7754" fill="#84BE84" rx="3" ry="3" style="stroke: #038048; stroke-width: 1.0;"/><text fill="#000000" font-family="sans-serif" font-size="11" lengthAdjust="spacingAndGlyphs" textLength="179" x="440.5" y="127.4102">void setPriceCode (int priceCode)</text><ellipse cx="431.5" cy="136.7305" fill="#84BE84" rx="3" ry="3" style="stroke: #038048; stroke-width: 1.0;"/><text fill="#000000" font-family="sans-serif" font-size="11" lengthAdjust="spacingAndGlyphs" textLength="171" x="440.5" y="140.3652">double amount (int daysRented)</text><ellipse cx="431.5" cy="149.6855" fill="#84BE84" rx="3" ry="3" style="stroke: #038048; stroke-width: 1.0;"/><text fill="#000000" font-family="sans-serif" font-size="11" lengthAdjust="spacingAndGlyphs" textLength="141" x="440.5" y="153.3203">int points (int daysRented)</text><ellipse cx="431.5" cy="162.6406" fill="#84BE84" rx="3" ry="3" style="stroke: #038048; stroke-width: 1.0;"/><text fill="#000000" font-family="sans-serif" font-size="11" lengthAdjust="spacingAndGlyphs" textLength="189" x="440.5" y="166.2754">String statement (int daysRented) ()</text><!--MD5=[2ce0c9fb7f55b1e256ab28a8ea6b25ec]
class Customer--><rect fill="#FEFECE" filter="url(#f3b5zswx9m691)" height="138.6855" id="Customer" style="stroke: #A80036; stroke-width: 1.5;" width="158" x="6" y="21"/><ellipse cx="53.25" cy="37" fill="#ADD1B2" rx="11" ry="11" style="stroke: #A80036; stroke-width: 1.0;"/><path d="M55.7231,43.1431 Q55.1421,43.4419 54.5029,43.5913 Q53.8638,43.7407 53.1582,43.7407 Q50.6514,43.7407 49.3315,42.0889 Q48.0117,40.437 48.0117,37.3159 Q48.0117,34.1865 49.3315,32.5347 Q50.6514,30.8828 53.1582,30.8828 Q53.8638,30.8828 54.5112,31.0322 Q55.1587,31.1816 55.7231,31.4805 L55.7231,34.2031 Q55.0923,33.6221 54.4988,33.3523 Q53.9053,33.0825 53.2744,33.0825 Q51.9297,33.0825 51.2449,34.1492 Q50.5601,35.2158 50.5601,37.3159 Q50.5601,39.4077 51.2449,40.4744 Q51.9297,41.541 53.2744,41.541 Q53.9053,41.541 54.4988,41.2712 Q55.0923,41.0015 55.7231,40.4204 Z "/><text fill="#000000" font-family="sans-serif" font-size="12" lengthAdjust="spacingAndGlyphs" textLength="55" x="73.75" y="41.5352">Customer</text><line style="stroke: #A80036; stroke-width: 1.5;" x1="7" x2="163" y1="53" y2="53"/><rect fill="none" height="6" style="stroke: #C82930; stroke-width: 1.0;" width="6" x="14" y="61"/><text fill="#000000" font-family="sans-serif" font-size="11" lengthAdjust="spacingAndGlyphs" textLength="70" x="26" y="67.6348">String _name</text><rect fill="none" height="6" style="stroke: #C82930; stroke-width: 1.0;" width="6" x="14" y="73.9551"/><text fill="#000000" font-family="sans-serif" font-size="11" lengthAdjust="spacingAndGlyphs" textLength="132" x="26" y="80.5898">Vector&lt;Rental&gt; _rentals</text><line style="stroke: #A80036; stroke-width: 1.5;" x1="7" x2="163" y1="86.9102" y2="86.9102"/><ellipse cx="17" cy="97.9102" fill="#84BE84" rx="3" ry="3" style="stroke: #038048; stroke-width: 1.0;"/><text fill="#000000" font-family="sans-serif" font-size="11" lengthAdjust="spacingAndGlyphs" textLength="128" x="26" y="101.5449">Customer (String name)</text><ellipse cx="17" cy="110.8652" fill="#84BE84" rx="3" ry="3" style="stroke: #038048; stroke-width: 1.0;"/><text fill="#000000" font-family="sans-serif" font-size="11" lengthAdjust="spacingAndGlyphs" textLength="123" x="26" y="114.5">void addRental (Rental)</text><ellipse cx="17" cy="123.8203" fill="#84BE84" rx="3" ry="3" style="stroke: #038048; stroke-width: 1.0;"/><text fill="#000000" font-family="sans-serif" font-size="11" lengthAdjust="spacingAndGlyphs" textLength="92" x="26" y="127.4551">double amount ()</text><ellipse cx="17" cy="136.7754" fill="#84BE84" rx="3" ry="3" style="stroke: #038048; stroke-width: 1.0;"/><text fill="#000000" font-family="sans-serif" font-size="11" lengthAdjust="spacingAndGlyphs" textLength="62" x="26" y="140.4102">int points ()</text><ellipse cx="17" cy="149.7305" fill="#84BE84" rx="3" ry="3" style="stroke: #038048; stroke-width: 1.0;"/><text fill="#000000" font-family="sans-serif" font-size="11" lengthAdjust="spacingAndGlyphs" textLength="99" x="26" y="153.3652">String statement ()</text><!--MD5=[cc5560187a62a53c956d2b30ded7b097]
reverse link Rental to Movie--><path d="M398.3,90.5 C405.62,90.5 412.95,90.5 420.27,90.5 " fill="none" id="Rental&lt;-Movie" style="stroke: #A80036; stroke-width: 1.0;"/><polygon fill="#FFFFFF" points="385.11,90.5,391.11,94.5,397.11,90.5,391.11,86.5,385.11,90.5" style="stroke: #A80036; stroke-width: 1.0;"/><text fill="#000000" font-family="sans-serif" font-size="13" lengthAdjust="spacingAndGlyphs" textLength="6" x="393.0691" y="87.4713">*</text><text fill="#000000" font-family="sans-serif" font-size="13" lengthAdjust="spacingAndGlyphs" textLength="8" x="404.414" y="87.5661">1</text><!--MD5=[39c61480b5c4532a12cc98122e2df730]
reverse link Customer to Rental--><path d="M177.42,90.5 C184.51,90.5 191.59,90.5 198.68,90.5 " fill="none" id="Customer&lt;-Rental" style="stroke: #A80036; stroke-width: 1.0;"/><polygon fill="#A80036" points="164.24,90.5,170.24,94.5,176.24,90.5,170.24,86.5,164.24,90.5" style="stroke: #A80036; stroke-width: 1.0;"/><text fill="#000000" font-family="sans-serif" font-size="13" lengthAdjust="spacingAndGlyphs" textLength="8" x="171.9137" y="87.4058">1</text><text fill="#000000" font-family="sans-serif" font-size="13" lengthAdjust="spacingAndGlyphs" textLength="6" x="185.0045" y="87.4938">*</text><!--MD5=[9b41f727fd470b72e9041e0952dedc6a]
@startuml
Rental   "*" o- "1" Movie
Customer "1" *- "*" Rental

class Movie {
    - String _title
    - int _priceCode
    + Movie (String title, int priceCode)
    + int getPriceCode ()
    + String getTitle ()
    + void setPriceCode (int priceCode)
    + double amount (int daysRented)
    + int points (int daysRented)
    + String statement (int daysRented) ()
    }

class Rental {
    - Movie _movie
    - int _daysRented
    + Rental (Movie, int daysRented)
    + double amount ()
    + int points ()
    + String statement ()
    }

class Customer {
    - String _name
    - Vector<Rental> _rentals
    + Customer (String name)
    + void addRental (Rental)
    + double amount ()
    + int points ()
    + String statement ()
    }

@enduml

PlantUML version 1.2020.07(Sun Apr 19 06:42:40 CDT 2020)
(GPL source distribution)
Java Runtime: OpenJDK Runtime Environment
JVM: OpenJDK 64-Bit Server VM
Java Version: 13.0.2+8
Operating System: Mac OS X
Default Encoding: UTF-8
Language: en
Country: US
--></g></svg>